{
    "name": "MetaMAL Seasonal Statistics",
    "short_name": "MetaMAL Seasonal Stats",
    "start_url": "/seasonal",
    "display": "minimal-ui",
    "background_color": "#BB002F",
    "theme_color": "#BB002F",
    "description": "Find out the performance of your favourite anime, who is the hottest character of the season and much more!",
    "lang": "en-UK",
    "orientation": "any",
    "categories": [
        "entertainment",
        "productivity",
        "social",
        "utilities"
    ],
    "icons": [
        {
            "src": "/assets/icons/icon48.png",
            "sizes": "48x48",
            "type": "image/png"
        },
        {
            "src": "/assets/icons/icon72.png",
            "sizes": "72x72",
            "type": "image/png"
        },
        {
            "src": "/assets/icons/icon96.png",
            "sizes": "96x96",
            "type": "image/png"
        },
        {
            "src": "/assets/icons/icon144.png",
            "sizes": "144x144",
            "type": "image/png"
        },
        {
            "src": "/assets/icons/icon168.png",
            "sizes": "168x168",
            "type": "image/png"
        },
        {
            "src": "/assets/icons/icon192.png",
            "sizes": "192x192",
            "type": "image/png"
        },
        {
            "src": "/assets/icons/icon512.png",
            "type": "image/png",
            "sizes": "512x512"
        },
        {
            "src": "/assets/icons/icon5000.png",
            "type": "image/png",
            "sizes": "5000x5000"
        }
    ]
}
